<?xml version="1.0"?>
<robot name="tracz" xmlns:xacro="http://www.ros.org/wiki/xacro">

<xacro:property name="height" value=".5" />
<xacro:property name="width" value=".1" />
<xacro:property name="depth" value=".2" />

  <link name="base_link">
    <visual>
      <geometry>
        <box size=".05 ${width} ${height}" />
      </geometry>
      <origin rpy="0 0 0" xyz="0 0 ${height/2}" />
     <material name="Blue">
       <color rgba="0 0 1.0 1.0"/>
     </material>
    </visual>
  </link>

  <joint name="base_to_foot" type="prismatic">
    <parent link="base_link"/>
    <child link="foot"/>
    <axis xyz="0 0 1"/>
    <origin xyz="-.025 0 0" rpy="0 0 0"/>
    <limit effort="30" velocity="1.0" lower="-0.09" upper="${height-0.25}" />
  </joint>

  <link name="foot">
    <visual>
      <geometry>
        <box size="${depth} ${width} 0.03" />
      </geometry>
      <origin rpy="0 0 0" xyz="${-depth/2} 0 0.1" />
     <material name="Blue">
       <color rgba="0 0 1.0 1.0"/>
     </material>
    </visual>
  </link>


  <joint name="foot_to_gripper" type="fixed">
    <parent link="foot"/>
    <child link="gripper"/>
    <origin xyz="0 0 0.015" rpy="0 0 0"/>
  </joint>

  <link name="gripper">
    <visual>
      <geometry>
        <mesh filename="package://tracz_prototype_app/meshes/gripper.dae"/>
      </geometry>
      <origin rpy="0 0 0" xyz="${-depth/2} 0 0.1" />
    </visual>
  </link>


</robot>
